// Jest Snapshot v1, https://goo.gl/fbAQLP

exports[`UpdateServerDialog should disable Update button and change label to Updating when updateLoading=true 1`] = `
"Snapshot Diff:
- First value
+ Second value

@@ -29,18 +29,20 @@
      </div>
      <div
        class=\\"row\\"
      >
        <button
+         disabled=\\"\\"
          type=\\"button\\"
        >
          Back
        </button>
        <button
+         disabled=\\"\\"
          type=\\"button\\"
        >
-         Update
+         Updating...
        </button>
      </div>
      <div />
    </div>
  </DocumentFragment>"
`;

exports[`UpdateServerDialog should disable select dropdown and show loading message when getServerGroupsLoading=true 1`] = `
"Snapshot Diff:
- First value
+ Second value

@@ -15,16 +15,18 @@
      <div
        class=\\"row\\"
      >
        <label>
          Server Groups:
-         <select>
+         <select
+           disabled=\\"\\"
+         >
            <option
              selected=\\"\\"
              value=\\"\\"
            >
-             Select your option
+             Loading options...
            </option>
          </select>
        </label>
      </div>
      <div"
`;

exports[`UpdateServerDialog should fill select dropdown with data from serverGroups prop when getServerGroupsSuccess=true 1`] = `
"Snapshot Diff:
- First value
+ Second value

@@ -22,10 +22,15 @@
              selected=\\"\\"
              value=\\"\\"
            >
              Select your option
            </option>
+           <option
+             value=\\"id-1\\"
+           >
+             group1
+           </option>
          </select>
        </label>
      </div>
      <div
        class=\\"row\\""
`;

exports[`UpdateServerDialog should render 1`] = `
<DocumentFragment>
  <div
    class="container"
  >
    <div
      class="row"
    >
      <label>
        Name:
        <input
          type="text"
        />
      </label>
    </div>
    <div
      class="row"
    >
      <label>
        Server Groups:
        <select>
          <option
            selected=""
            value=""
          >
            Select your option
          </option>
        </select>
      </label>
    </div>
    <div
      class="row"
    >
      <button
        type="button"
      >
        Back
      </button>
      <button
        type="button"
      >
        Update
      </button>
    </div>
    <div />
  </div>
</DocumentFragment>
`;

exports[`UpdateServerDialog should show error message when getServerGroupsFailure=true 1`] = `
"Snapshot Diff:
- First value
+ Second value

@@ -22,10 +22,11 @@
              selected=\\"\\"
              value=\\"\\"
            >
              Select your option
            </option>
+           Failed to retrieve server groups
          </select>
        </label>
      </div>
      <div
        class=\\"row\\""
`;

exports[`UpdateServerDialog should show updateFailureMessage message when updateFailure=true 1`] = `
"Snapshot Diff:
- First value
+ Second value

@@ -39,8 +39,10 @@
          type=\\"button\\"
        >
          Update
        </button>
      </div>
-     <div />
+     <div>
+       update failed
+     </div>
    </div>
  </DocumentFragment>"
`;
