// Jest Snapshot v1, https://goo.gl/fbAQLP

exports[`ConnectServerDialog should disable inputs and change button label from 'connect' to 'connecting' when loading=true 1`] = `
"Snapshot Diff:
- First value
+ Second value

@@ -14,13 +14,14 @@
      </div>
      <div
        class=\\"row\\"
      >
        <button
+         disabled=\\"\\"
          type=\\"submit\\"
        >
-         Connect
+         Connecting...
        </button>
      </div>
      <div />
      <div />
    </div>"
`;

exports[`ConnectServerDialog should display error message when failure=true 1`] = `
"Snapshot Diff:
- First value
+ Second value

@@ -20,8 +20,10 @@
        >
          Connect
        </button>
      </div>
      <div />
-     <div />
+     <div>
+       Cannot connect to server.
+     </div>
    </div>
  </DocumentFragment>"
`;

exports[`ConnectServerDialog should display user and password inputs, back button and credential required message when credentialRequired=true 1`] = `
"Snapshot Diff:
- First value
+ Second value

@@ -6,22 +6,50 @@
        class=\\"row\\"
      >
        <label>
          I.P.:
          <input
+           disabled=\\"\\"
+           type=\\"text\\"
+         />
+       </label>
+     </div>
+     <div
+       class=\\"row\\"
+     >
+       <label>
+         Username:
+         <input
+           type=\\"text\\"
+         />
+       </label>
+     </div>
+     <div
+       class=\\"row\\"
+     >
+       <label>
+         Password:
+         <input
            type=\\"text\\"
          />
        </label>
      </div>
      <div
        class=\\"row\\"
+     >
+       <button
+         type=\\"button\\"
        >
+         Back
+       </button>
        <button
          type=\\"submit\\"
        >
          Connect
        </button>
      </div>
-     <div />
+     <div>
+       Credential is required for this server. Please provide correct username and password.
+     </div>
      <div />
    </div>
  </DocumentFragment>"
`;

exports[`ConnectServerDialog should render 1`] = `
<DocumentFragment>
  <div
    class="container"
  >
    <div
      class="row"
    >
      <label>
        I.P.:
        <input
          type="text"
        />
      </label>
    </div>
    <div
      class="row"
    >
      <button
        type="submit"
      >
        Connect
      </button>
    </div>
    <div />
    <div />
  </div>
</DocumentFragment>
`;
